{
  "type": "service_account",
  "project_id": "fir-7fc16",
  "private_key_id": "12c4db30a74a5e2af861942a16da682391e33881",
  "private_key": "-----BEGIN PRIVATE KEY-----\nMIIEvQIBADANBgkqhkiG9w0BAQEFAASCBKcwggSjAgEAAoIBAQCz/4MPlC9uQMuv\naeheoldfRUv59UlCvk2/9DssdgMfb0/LQzcJ5L4UReLr4zeNg3sOsAsZspJ2uUN5\nrVkQ/xJPkKQdYRdaDSdz1TzmQvwbZsEkW73kCqlu4VHaPUvsAr6bSjsRFNBcY51u\nxVxXATqcubBhyIEdQ5IY6BA/8lX7jspgeOvVaFjaE3AqJi0VGPNN8HLxC8F8CTWo\nuanwnmqKwKwGrlhsLnypgjtqmufF+vMc7Nzwu7LaIDcVxe2TF1blUfHh7o9zav72\nO1Sygf/EYLc+TXKxweaTA9OR/RFN/RpmLsSLP9Kaky+GVDNDFc5OdeyQq6c9X86V\n4fLPiYaVAgMBAAECggEAG09Xu8vgfGpxXQ6FFqKr/gT+F5E7Sdik5Exyk/bd122k\nnjL3DVW670mBOggR/DMoPxy/umjpJwFJ9xKxkk4ZIaBQ/jImgF/BjiYa5Nbh+GhZ\nQqJ2x7xEY9HlAOdO9yKdd+NF3fwZ9wKYNt/T+FFz6qaT1+o7iMyhRI0lNgaXPCD2\nxZ6SQ3WSftlC/VvvwopQzMEoBCvzS14OMyoexGW28eWwG4D+aKEDSBjtPRu8IgfL\nHPKnY35nqprLdGDUenJvN4h8KQ1EjeCLn7AVBqXzVrFgilfiOM9SBenAW4DacNjV\nB/+h6sQrwVeYL7f/I0qReDYXVDC8zhtrIz8uYH08iwKBgQD4i7fXovzgaVO3+UBy\nd8vnKlvh0XjXhn/3OF9RbUZm3HEr86zxzMVXZp/OWBgVTDBRtnDZHl1MlrM36QJ2\nJYIosQMBTegViOFkMhsSc954GBfvwYp06Rr5AdBh3LOkPgkINE+GQ6rZuFoh2lTp\nxddYlpbm49tLw/odaDtVuaIM/wKBgQC5ZX/N5e8sK+lrHm1J43fhDVmqy8X0hPsW\nrqYQnlAJj5R1mpDK31NrLt/4ukgxjAIiTTikrPP5+kv6CMBNs02+19nopc3scO0f\npTNODlCucSQzqgLj0IQmch5+Rzt/yXfaM+oiwqSZYWwUhmQpVq9SO9qN5mEIuCv6\nM3lWR/noawKBgGjJDvL8pjw+a6tOjFs2ImMNOruTwqyq6dxiid0cgufu3E+5Zhpz\nSGe2vn0SKuUfv+dTUXRYFuGpT1mtBPqmiZ96MVglbklV8iB592vqKcrb7YuJP0RW\n2qZMm3wGvj3qYYhx9W0XrjooPOe00sPUQxv4MRqayePBdftb7FgR8T4lAoGALHS1\nP8cqIdppv2DtbfFYlqOf47+3ORoGJ3s7oPKFWLWQMN8eZzdEBoiX9kmc9ByRim4f\n7gT2//NP8qXUjw020FNsEkhn55Fwmsz/T3FJUXsZ5jWXOc+PULS+sSMdllfWIIGg\nXDN2Sr08sHNFY1BA/CQUFUCv9epLyVQ8fT8HIv8CgYEA9mPAxDiI6I2vrAwHvgkx\nYrQ2lCWEyRhfGFideGVwebcWPj6/3aePzT6JBEybOH84PZTQZFuHCwJpK7zVUHLj\nbGPyOGplAIEkT8f0KWonYssZTx16dd7hOo0okHWf8UPFGi9mwZ0O/9dw0za6v/AD\nxTJpjIFBnz+OPbH7pncC+n4=\n-----END PRIVATE KEY-----\n",
  "client_email": "firebase-adminsdk-in7mm@fir-7fc16.iam.gserviceaccount.com",
  "client_id": "115155214637558108869",
  "auth_uri": "https://accounts.google.com/o/oauth2/auth",
  "token_uri": "https://oauth2.googleapis.com/token",
  "auth_provider_x509_cert_url": "https://www.googleapis.com/oauth2/v1/certs",
  "client_x509_cert_url": "https://www.googleapis.com/robot/v1/metadata/x509/firebase-adminsdk-in7mm%40fir-7fc16.iam.gserviceaccount.com"
}
